[{
        "info_usuario": {
            "nombre": "JOSE LUIS RODRIGUEZ",

            "documento": "1122888333",

            "email": "jose.rodriguez@gmail.com",

            "direccion": "CL 132 # 28B 09",

            "municipio": "BOGOTA D.C",

            "departamento": "BOGOTA D.C",

            "plan": [{
                    "descripcion": "Plan prueba 40GB: Cargo Fijo Mensual: $6.600",

                    "nombre": "Plan prueba 40GB"
                },

                {
                    "descripcion": "Plan prueba 60GB: Cargo Fijo Mensual: $10.000",

                    "nombre": "Plan prueba 60GB"
                }
            ]
        }
    },

    {
        "info_usuario": {
            "nombre": "LUZ CLARA RAMIREZ",

            "documento": "1122888321",

            "email": "luz.ramirez@gmail.com",

            "direccion": "CL 32 # 22C 11",

            "municipio": "BOGOTA D.C",

            "departamento": "BOGOTA D.C",

            "plan": [{
                    "descripcion": "Plan prueba 11GB: Cargo Fijo Mensual: $3.000",

                    "nombre": "Plan prueba 11GB"
                },

                {
                    "descripcion": "Plan prueba 60GB: Cargo Fijo Mensual: $10.000",

                    "nombre": "Plan prueba 60GB"
                }
            ]
        }
    },

    {
        "info_usuario": {
            "nombre": "JAIME RAMIREZ",

            "documento": "1122112211",

            "email": "jaime.ramirez@gmail.com",

            "direccion": "CL 128 # 12 11",

            "municipio": "BOGOTA D.C",

            "departamento": "BOGOTA D.C",

            "plan": [{
                "descripcion": "Plan prueba 11GB: Cargo Fijo Mensual: $3.000",

                "nombre": "Plan prueba 11GB"
            }]
        }
    }
]